Brisbane polling booths
…
Which polling booth in the Ryan division had the highest votter turnout in 2016

fppb %>%
  filter(DivisionNm == "RYAN",
         year == 2016) %>%
  group_by(PollingPlace) %>%
  summarise(voter_turnout = sum(OrdinaryVotes, na.rm = TRUE)) %>%
  arrange(-voter_turnout)

# A tibble: 45 x 2
   PollingPlace            voter_turnout
   <chr>                           <dbl>
 1 KENMORE RYAN PPVC                7941
 2 MOGGILL                          3359
 3 TOOWONG                          2815
 4 THE GAP EAST                     2655
 5 BRISBANE CITY RYAN PPVC          2526
 6 THE GAP                          2481
 7 KARANA DOWNS                     2480
 8 FERNY GROVE                      2417
 9 INDOOROOPILLY WEST               2249
10 CHAPEL HILL                      2237
# ... with 35 more rows
…
fp19_qld %>%
  filter(DivisionNm == "Ryan") %>%
  group_by(PollingPlace) %>%
  summarise(voter_turnout = sum(OrdinaryVotes)) %>%
  arrange(-voter_turnout)

# A tibble: 46 x 2
   PollingPlace            voter_turnout
   <chr>                           <int>
 1 Indooroopilly PPVC               8857
 2 The Gap PPVC                     3779
 3 Brisbane City RYAN PPVC          3146
 4 Moggill                          2846
 5 Everton Hills RYAN PPVC          2831
 6 Toowong                          2818
 7 Ironside                         2748
 8 Bellbowrie PPVC                  2702
 9 Ferny Grove                      2371
10 Kenmore                          2288
# ... with 36 more rows
…
